<?xml version="1.0" encoding="UTF-8" standalone="no"?>
<!-- Created with Inkscape (http://www.inkscape.org/) -->

<svg
   xmlns:dc="http://purl.org/dc/elements/1.1/"
   xmlns:cc="http://creativecommons.org/ns#"
   xmlns:rdf="http://www.w3.org/1999/02/22-rdf-syntax-ns#"
   xmlns:svg="http://www.w3.org/2000/svg"
   xmlns="http://www.w3.org/2000/svg"
   xmlns:sodipodi="http://sodipodi.sourceforge.net/DTD/sodipodi-0.dtd"
   xmlns:inkscape="http://www.inkscape.org/namespaces/inkscape"
   width="30"
   height="30"
   id="svg2"
   version="1.1"
   inkscape:version="0.48.4 r9939"
   sodipodi:docname="button_0201_structureadd.svg"
   inkscape:export-filename="/home/cauchy/Python/UnShip/data/images/cr_bu_0200_structure.png"
   inkscape:export-xdpi="90"
   inkscape:export-ydpi="90">
  <defs
     id="defs4" />
  <sodipodi:namedview
     id="base"
     pagecolor="#878787"
     bordercolor="#666666"
     borderopacity="1.0"
     inkscape:pageopacity="0"
     inkscape:pageshadow="2"
     inkscape:zoom="20.133333"
     inkscape:cx="15"
     inkscape:cy="19.509857"
     inkscape:document-units="px"
     inkscape:current-layer="layer1"
     showgrid="true"
     inkscape:window-width="1326"
     inkscape:window-height="746"
     inkscape:window-x="-1"
     inkscape:window-y="-1"
     inkscape:window-maximized="1"
     inkscape:snap-grids="false">
    <inkscape:grid
       type="xygrid"
       id="grid2987"
       empspacing="5"
       visible="true"
       enabled="true"
       snapvisiblegridlinesonly="true" />
  </sodipodi:namedview>
  <metadata
     id="metadata7">
    <rdf:RDF>
      <cc:Work
         rdf:about="">
        <dc:format>image/svg+xml</dc:format>
        <dc:type
           rdf:resource="http://purl.org/dc/dcmitype/StillImage" />
        <dc:title />
      </cc:Work>
    </rdf:RDF>
  </metadata>
  <g
     inkscape:label="Calque 1"
     inkscape:groupmode="layer"
     id="layer1"
     transform="translate(0,-1022.3622)">
    <path
       style="font-size:medium;font-style:normal;font-variant:normal;font-weight:normal;font-stretch:normal;text-indent:0;text-align:start;text-decoration:none;line-height:normal;letter-spacing:normal;word-spacing:normal;text-transform:none;direction:ltr;block-progression:tb;writing-mode:lr-tb;text-anchor:start;baseline-shift:baseline;color:#000000;fill:#ffffff;fill-opacity:1;stroke:none;stroke-width:0.9034059;marker:none;visibility:visible;display:inline;overflow:visible;enable-background:accumulate;font-family:Sans;-inkscape-font-specification:Sans"
       d="M 6.8125 20.0625 C 6.7391081 20.192535 6.25 21.03125 6.25 21.03125 C 6.177832 21.15745 6.1474573 21.34495 6.1875 21.46875 C 6.227543 21.59245 6.3109366 21.66205 6.375 21.71875 C 6.5031267 21.83195 6.6210724 21.875 6.8125 21.875 L 23.4375 21.875 C 23.780051 21.875 24.0625 21.5926 24.0625 21.25 A 0.45174812 0.45174812 0 0 0 24 21.03125 C 22.763922 18.94685 17.97427 11.13945 15.5625 6.59375 A 0.45174812 0.45174812 0 0 0 15.53125 6.53125 A 0.45174812 0.45174812 0 0 0 15.0625 6.28125 A 0.45174812 0.45174812 0 0 0 14.96875 6.3125 C 14.9056 6.3375 15.03334 6.3126 14.9375 6.3125 A 0.45174812 0.45174812 0 0 0 14.5625 6.53125 C 14.488346 6.6474372 14.11446 7.3102297 14 7.5 L 14 9.25 C 14.275548 8.7778502 14.867409 7.7350196 15.03125 7.46875 C 17.450393 11.95415 21.579044 18.69595 22.9375 20.96875 L 7.3125 20.96875 C 7.348513 20.904938 7.7275946 20.212803 7.8125 20.0625 L 6.8125 20.0625 z "
       id="path4285"
       transform="translate(0,1022.3622)" />
    <path
       style="font-size:medium;font-style:normal;font-variant:normal;font-weight:normal;font-stretch:normal;text-indent:0;text-align:start;text-decoration:none;line-height:normal;letter-spacing:normal;word-spacing:normal;text-transform:none;direction:ltr;block-progression:tb;writing-mode:lr-tb;text-anchor:start;baseline-shift:baseline;color:#000000;fill:#66ff00;fill-opacity:1;stroke:none;stroke-width:0.90340589999999998;marker:none;visibility:visible;display:inline;overflow:visible;enable-background:accumulate;font-family:Sans;-inkscape-font-specification:Sans"
       d="m 6.8125,1042.4247 1,0 c 0.4868324,-0.8618 1.4174167,-2.4857 2.9375,-5.1562 1.380793,-2.4258 2.376662,-4.1598 3.25,-5.6563 l 0,-1.75 c -0.8226,1.3638 -2.334209,3.9873 -4.03125,6.9688 -1.6460897,2.8918 -2.7354342,4.8481 -3.15625,5.5937 z"
       id="rect3755"
       inkscape:connector-curvature="0" />
  </g>
</svg>
