<?xml version="1.0" encoding="UTF-8" standalone="no"?>
<!-- Created with Inkscape (http://www.inkscape.org/) -->

<svg
   xmlns:dc="http://purl.org/dc/elements/1.1/"
   xmlns:cc="http://creativecommons.org/ns#"
   xmlns:rdf="http://www.w3.org/1999/02/22-rdf-syntax-ns#"
   xmlns:svg="http://www.w3.org/2000/svg"
   xmlns="http://www.w3.org/2000/svg"
   xmlns:sodipodi="http://sodipodi.sourceforge.net/DTD/sodipodi-0.dtd"
   xmlns:inkscape="http://www.inkscape.org/namespaces/inkscape"
   width="32"
   height="32"
   id="svg2"
   version="1.1"
   inkscape:version="0.48.4 r9939"
   sodipodi:docname="button_01_menu.svg">
  <defs
     id="defs4" />
  <sodipodi:namedview
     id="base"
     pagecolor="#ffffff"
     bordercolor="#666666"
     borderopacity="1.0"
     inkscape:pageopacity="0.0"
     inkscape:pageshadow="2"
     inkscape:zoom="9.1875"
     inkscape:cx="21.29466"
     inkscape:cy="10.285778"
     inkscape:document-units="px"
     inkscape:current-layer="layer1"
     showgrid="true"
     inkscape:window-width="1326"
     inkscape:window-height="746"
     inkscape:window-x="-1"
     inkscape:window-y="-1"
     inkscape:window-maximized="1">
    <inkscape:grid
       type="xygrid"
       id="grid2987"
       empspacing="5"
       visible="true"
       enabled="true"
       snapvisiblegridlinesonly="true" />
  </sodipodi:namedview>
  <metadata
     id="metadata7">
    <rdf:RDF>
      <cc:Work
         rdf:about="">
        <dc:format>image/svg+xml</dc:format>
        <dc:type
           rdf:resource="http://purl.org/dc/dcmitype/StillImage" />
        <dc:title></dc:title>
      </cc:Work>
    </rdf:RDF>
  </metadata>
  <g
     inkscape:label="Calque 1"
     inkscape:groupmode="layer"
     id="layer1"
     transform="translate(0,-1020.3622)">
    <path
       style="fill:#000000;fill-opacity:1;stroke:none"
       id="path3052"
       d="m 7.6133013,1024.907 c 0.2322865,0.2203 0.4699152,0.4329 0.6986628,0.6573 0.6607287,0.635 1.2588107,1.3302 1.8421639,2.0356 0.860033,1.0458 1.622583,2.165 2.374607,3.2893 0.868653,1.2878 1.660897,2.6237 2.408204,3.9847 0.702962,1.2909 1.250046,2.6562 1.773681,4.027 0.44177,1.1794 0.873043,2.3627 1.298952,3.5479 0.281164,0.7951 0.545265,1.5963 0.878214,2.3717 0.116724,0.1935 0.324051,0.7919 0.592868,0.8131 0.01654,-0.014 0.03974,-0.024 0.04963,-0.043 0.0031,-0.01 0.05605,-0.2339 0.04788,-0.2293 -1.635333,0.9146 -3.235542,1.8907 -4.85758,2.8288 -0.04702,0.027 0.09443,-0.056 0.131768,-0.096 0.04942,-0.052 0.08348,-0.117 0.125222,-0.1755 0.378949,-0.7156 0.554199,-1.5171 0.745627,-2.2979 0.290503,-1.2379 0.580189,-2.476 0.876169,-3.7127 0.324535,-1.3192 0.659287,-2.6359 1.008145,-3.9489 0.277702,-1.064 0.600828,-2.1149 0.962435,-3.1531 0.288056,-0.8264 0.630588,-1.6319 0.983648,-2.4322 0.266773,-0.6035 0.545031,-1.2018 0.830328,-1.7968 0.222554,-0.453 0.45089,-0.9031 0.681829,-1.3519 0.186965,-0.3496 0.36501,-0.7039 0.534867,-1.0622 0.138956,-0.2801 0.277694,-0.5621 0.45331,-0.8214 0.141415,-0.2062 0.283378,-0.4128 0.440955,-0.6072 0.145813,-0.1506 0.291883,-0.2994 0.457959,-0.4277 0.13998,-0.1261 0.285534,-0.2452 0.426545,-0.3699 0.089,-0.086 0.180276,-0.1657 0.288666,-0.2254 0,0 5.423106,-2.0987 5.423106,-2.0987 l 0,0 c -0.09917,0.067 -0.21123,0.1027 -0.314098,0.1646 -0.154712,0.1063 -0.298302,0.2261 -0.442267,0.3462 -0.151131,0.1447 -0.330015,0.2539 -0.479759,0.4001 -0.195188,0.1458 -0.354669,0.3194 -0.499049,0.5154 -0.181691,0.2466 -0.376239,0.4822 -0.51505,0.758 -0.195572,0.3579 -0.361301,0.7314 -0.56095,1.0872 -0.25048,0.4481 -0.485536,0.9045 -0.729822,1.356 -0.312206,0.5976 -0.611775,1.2019 -0.903,1.81 -0.383032,0.7948 -0.750732,1.5977 -1.067419,2.4216 -0.400487,1.0361 -0.761694,2.0872 -1.068028,3.1552 -0.385188,1.3049 -0.739982,2.618 -1.048884,3.9432 -0.28137,1.2131 -0.544239,2.4305 -0.773593,3.6546 -0.152013,0.7781 -0.280392,1.5631 -0.503624,2.325 -0.02171,0.075 -0.04401,0.1499 -0.06514,0.2251 -0.01828,0.065 0.0041,0.1597 -0.0531,0.1957 -1.654015,1.0416 -3.336953,2.0376 -5.033856,3.0078 -0.04644,0.026 -0.105818,-0.02 -0.155143,-0.041 -0.125591,-0.053 -0.189253,-0.1149 -0.293073,-0.1978 -0.305782,-0.3348 -0.480368,-0.7496 -0.631631,-1.1732 -0.276748,-0.8148 -0.49909,-1.6462 -0.753242,-2.4681 -0.37217,-1.2029 -0.757405,-2.4022 -1.193117,-3.5838 -0.499093,-1.355 -1.029597,-2.7021 -1.701933,-3.9823 -0.7256383,-1.352 -1.5066939,-2.675 -2.3929767,-3.929 -0.7701736,-1.0924 -1.5573699,-2.1751 -2.4507783,-3.1716 -0.6103222,-0.6653 -1.2406805,-1.3167 -1.967272,-1.8575 -0.2640521,-0.189 -0.5337106,-0.3736 -0.8208343,-0.5262 0,0 4.9397776,-3.1405 4.9397776,-3.1405 z"
       inkscape:connector-curvature="0" />
    <rect
       style="fill:#000000;fill-opacity:1;stroke:none"
       id="rect3054"
       width="5"
       height="3"
       x="14.673469"
       y="1042.7977" />
  </g>
</svg>
